{
	"MicroArray" : "GSE2034-3494-7390.txt",
	"class1" : "ERpos",
	"class1mean" : "0.33734466331871354",
	"class1std" : "0.29938261495163077",
	"class1thr" : "0.5",
	"class1min" : "0.502113114413952",
	"class1max" : "0.8299954135453294",
	"class2" : "ERneg",
	"class2mean" : "-0.38065198081901586",
	"class2std" : "0.2863396831547533",
	"class2thr" : "-0.5",
	"class2min" : "-0.5008658449628197",
	"class2max" : "-0.8858521948992238",
	"bothUpThr" : "0.9",
	"subPaths":{
		"Class1":[
		],
		"Class2":[
			{ "score":-0.5065819586590747,"pvalue":1.8331364958342398E-14,"fdr":7.149232333753535E-13,"coverage":"coverage:[(77 out of 556) , (74 out of 175)]", "EdgesIndex":["hsa:3055 hsa:4067 (pp) hsa:9846"]},
			{ "score":-0.5111547317957041,"pvalue":4.170954559725036E-14,"fdr":1.5432531870982632E-12,"coverage":"coverage:[(74 out of 556) , (72 out of 175)]", "EdgesIndex":["hsa:5788 (pp) hsa:3055 hsa:4067","hsa:3055 hsa:4067 (pp) hsa:9846"]},
			{ "score":-0.5269154026046471,"pvalue":8.25736488018762E-13,"fdr":2.477209464056286E-11,"coverage":"coverage:[(63 out of 556) , (64 out of 175)]", "EdgesIndex":["hsa:5578 hsa:5579 hsa:5582 (pp) hsa:653361"]},
			{ "score":-0.5601087305994796,"pvalue":1.714306202537545E-23,"fdr":2.708603800009321E-21,"coverage":"coverage:[(86 out of 556) , (96 out of 175)]", "EdgesIndex":["hsa:3055 hsa:4067 (pp) hsa:2209"]},
			{ "score":-0.569159636112529,"pvalue":1.769894344298965E-23,"fdr":2.778734120549375E-21,"coverage":"coverage:[(82 out of 556) , (94 out of 175)]", "EdgesIndex":["hsa:5788 (pp) hsa:3055 hsa:4067","hsa:3055 hsa:4067 (pp) hsa:2209"]},
			{ "score":-0.5761545659712666,"pvalue":4.904094624013237E-27,"fdr":1.3142973592355476E-24,"coverage":"coverage:[(88 out of 556) , (103 out of 175)]", "EdgesIndex":["hsa:5788 (pp) hsa:3055 hsa:4067"]},
			{ "score":-0.6052690936978392,"pvalue":1.3739750002591223E-26,"fdr":3.4624170006529886E-24,"coverage":"coverage:[(75 out of 556) , (96 out of 175)]", "EdgesIndex":["hsa:3055 hsa:4067 (pp) hsa:2212"]},
			{ "score":-0.619127902521266,"pvalue":3.5913422487890184E-27,"fdr":9.912104606657691E-25,"coverage":"coverage:[(71 out of 556) , (95 out of 175)]", "EdgesIndex":["hsa:5788 (pp) hsa:3055 hsa:4067","hsa:3055 hsa:4067 (pp) hsa:2212"]},
			{ "score":-0.623209561171426,"pvalue":4.7099762810388455E-22,"fdr":6.028769639729722E-20,"coverage":"coverage:[(59 out of 556) , (80 out of 175)]", "EdgesIndex":["hsa:3055 hsa:4067 (pp) hsa:2214"]},
			{ "score":-0.6245885268335983,"pvalue":8.544100289782033E-22,"fdr":1.05092433564319E-19,"coverage":"coverage:[(58 out of 556) , (79 out of 175)]", "EdgesIndex":["hsa:3055 hsa:4067 (pp) hsa:2214","hsa:2214 (pp) hsa:1398 hsa:1399"]},
			{ "score":-0.6405161627668118,"pvalue":1.0554113810936495E-22,"fdr":1.5303465025857918E-20,"coverage":"coverage:[(55 out of 556) , (79 out of 175)]", "EdgesIndex":["hsa:5788 (pp) hsa:3055 hsa:4067","hsa:3055 hsa:4067 (pp) hsa:2214"]},
			{ "score":-0.6421674429171872,"pvalue":1.8935334930829367E-22,"fdr":2.5941408855236234E-20,"coverage":"coverage:[(54 out of 556) , (78 out of 175)]", "EdgesIndex":["hsa:5788 (pp) hsa:3055 hsa:4067","hsa:3055 hsa:4067 (pp) hsa:2214","hsa:2214 (pp) hsa:1398 hsa:1399"]}
		],
		"Common":[
			{ "score":0.9685362517099864,"pvalue":0.3196911123672042,"fdr":0.9590733371016127,"coverage":"coverage:[(536 out of 556) , (172 out of 175)]", "EdgesIndex":["hsa:7454 hsa:8976 (pp) hsa:10092 hsa:10093 hsa:10094 hsa:10095 hsa:10109 hsa:10552 hsa:81873"]},
			{ "score":0.9671682626538988,"pvalue":0.6260263263554986,"fdr":1.2520526527109972,"coverage":"coverage:[(539 out of 556) , (168 out of 175)]", "EdgesIndex":["hsa:5578 hsa:5579 hsa:5582 (pp) hsa:8398"]},
			{ "score":0.9179206566347469,"pvalue":0.8746473242033433,"fdr":1.7492946484066867,"coverage":"coverage:[(511 out of 556) , (160 out of 175)]", "EdgesIndex":["hsa:23396 hsa:8394 hsa:8395 (pp) hsa:7454 hsa:8976"]},
			{ "score":0.908344733242134,"pvalue":0.9999999999996373,"fdr":0.9999999999996373,"coverage":"coverage:[(505 out of 556) , (159 out of 175)]", "EdgesIndex":["hsa:23396 hsa:8394 hsa:8395 (pp) hsa:7454 hsa:8976","hsa:7454 hsa:8976 (pp) hsa:10092 hsa:10093 hsa:10094 hsa:10095 hsa:10109 hsa:10552 hsa:81873"]},
			{ "score":0.9015047879616963,"pvalue":0.9999999999994141,"fdr":0.9999999999994141,"coverage":"coverage:[(501 out of 556) , (158 out of 175)]", "EdgesIndex":["hsa:5337 hsa:5338 (pp) hsa:56848 hsa:8877"]}
		]
	}
}