{
	"MicroArray" : "GSE2034-3494-7390.txt",
	"class1" : "ERpos",
	"class1mean" : "0.33734466331871354",
	"class1std" : "0.29938261495163077",
	"class1thr" : "0.5",
	"class1min" : "0.502113114413952",
	"class1max" : "0.8299954135453294",
	"class2" : "ERneg",
	"class2mean" : "-0.38065198081901586",
	"class2std" : "0.2863396831547533",
	"class2thr" : "-0.5",
	"class2min" : "-0.5008658449628197",
	"class2max" : "-0.8858521948992238",
	"bothUpThr" : "0.9",
	"subPaths":{
		"Class1":[
		],
		"Class2":[
			{ "score":-0.5032105441027374,"pvalue":3.916896338410098E-11,"fdr":8.617171944502217E-10,"coverage":"coverage:[(63 out of 556) , (60 out of 175)]", "EdgesIndex":["hsa:7124 (pp) hsa:7133"]},
			{ "score":-0.5064834526804723,"pvalue":4.0386834269864025E-9,"fdr":6.058025140479604E-8,"coverage":"coverage:[(51 out of 556) , (49 out of 175)]", "EdgesIndex":["hsa:7124 (pp) hsa:7132"]},
			{ "score":-0.5160190865712339,"pvalue":5.7963885883401E-14,"fdr":2.086699891802436E-12,"coverage":"coverage:[(71 out of 556) , (70 out of 175)]", "EdgesIndex":["hsa:6354 (pp) hsa:729230"]},
			{ "score":-0.521203830369357,"pvalue":1.2124050436892947E-20,"fdr":1.2609012454368666E-18,"coverage":"coverage:[(95 out of 556) , (95 out of 175)]", "EdgesIndex":["hsa:7422 (pp) hsa:2321"]},
			{ "score":-0.5443103897231143,"pvalue":4.57652430275442E-10,"fdr":8.237743744957956E-9,"coverage":"coverage:[(45 out of 556) , (48 out of 175)]", "EdgesIndex":["hsa:6363 (pp) hsa:1236"]},
			{ "score":-0.5453309567686776,"pvalue":2.8128902618438538E-21,"fdr":3.2629527037388706E-19,"coverage":"coverage:[(86 out of 556) , (92 out of 175)]", "EdgesIndex":["hsa:6357 (pp) hsa:729230"]},
			{ "score":-0.5455459848942046,"pvalue":1.1282842078121198E-16,"fdr":6.431219984529083E-15,"coverage":"coverage:[(71 out of 556) , (76 out of 175)]", "EdgesIndex":["hsa:3576 (pp) hsa:3577"]},
			{ "score":-0.5774477846190994,"pvalue":8.662702090841767E-11,"fdr":1.7325404181683534E-9,"coverage":"coverage:[(40 out of 556) , (47 out of 175)]", "EdgesIndex":["hsa:7422 (pp) hsa:3791"]},
			{ "score":-0.5774477846190994,"pvalue":8.662702090841767E-11,"fdr":1.7325404181683534E-9,"coverage":"coverage:[(40 out of 556) , (47 out of 175)]", "EdgesIndex":["hsa:3605 (pp) hsa:23765"]}
		],
		"Common":[
		]
	}
}