{
	"MicroArray" : "GSE2034-3494-7390.txt",
	"class1" : "ERpos",
	"class1mean" : "0.33734466331871354",
	"class1std" : "0.29938261495163077",
	"class1thr" : "0.5",
	"class1min" : "0.502113114413952",
	"class1max" : "0.8299954135453294",
	"class2" : "ERneg",
	"class2mean" : "-0.38065198081901586",
	"class2std" : "0.2863396831547533",
	"class2thr" : "-0.5",
	"class2min" : "-0.5008658449628197",
	"class2max" : "-0.8858521948992238",
	"bothUpThr" : "0.9",
	"subPaths":{
		"Class1":[
		],
		"Class2":[
		],
		"Common":[
			{ "score":0.9890560875512996,"pvalue":0.4053545914218155,"fdr":1.2160637742654465,"coverage":"coverage:[(551 out of 556) , (172 out of 175)]", "EdgesIndex":["hsa:153 hsa:154 hsa:155 (pp) hsa:2778"]},
			{ "score":0.9507523939808481,"pvalue":0.01544092593388436,"fdr":0.06176370373553744,"coverage":"coverage:[(535 out of 556) , (160 out of 175)]", "EdgesIndex":["hsa:5733 (pp) hsa:2770 hsa:2771 hsa:2773"]}
		]
	}
}