{
	"MicroArray" : "GSE2034-3494-7390.txt",
	"class1" : "ERpos",
	"class1mean" : "0.33734466331871354",
	"class1std" : "0.29938261495163077",
	"class1thr" : "0.5",
	"class1min" : "0.502113114413952",
	"class1max" : "0.8299954135453294",
	"class2" : "ERneg",
	"class2mean" : "-0.38065198081901586",
	"class2std" : "0.2863396831547533",
	"class2thr" : "-0.5",
	"class2min" : "-0.5008658449628197",
	"class2max" : "-0.8858521948992238",
	"bothUpThr" : "0.9",
	"subPaths":{
		"Class1":[
		],
		"Class2":[
		],
		"Common":[
			{ "score":0.9958960328317373,"pvalue":0.5605496911479472,"fdr":1.1210993822958943,"coverage":"coverage:[(554 out of 556) , (174 out of 175)]", "EdgesIndex":["hsa:2770 hsa:2771 hsa:2773 hsa:2775 (pp) hsa:3760 hsa:3762 hsa:3763 hsa:3765"]},
			{ "score":0.9767441860465116,"pvalue":0.017468579921240193,"fdr":0.06987431968496077,"coverage":"coverage:[(539 out of 556) , (175 out of 175)]", "EdgesIndex":["hsa:1956 (pp) hsa:23533 hsa:5290 hsa:5291 hsa:5293 hsa:5294 hsa:5295 hsa:5296 hsa:8503"]}
		]
	}
}