{
	"MicroArray" : "GSE2034-3494-7390.txt",
	"class1" : "ERpos",
	"class1mean" : "0.33734466331871354",
	"class1std" : "0.29938261495163077",
	"class1thr" : "0.5",
	"class1min" : "0.502113114413952",
	"class1max" : "0.8299954135453294",
	"class2" : "ERneg",
	"class2mean" : "-0.38065198081901586",
	"class2std" : "0.2863396831547533",
	"class2thr" : "-0.5",
	"class2min" : "-0.5008658449628197",
	"class2max" : "-0.8858521948992238",
	"bothUpThr" : "0.9",
	"subPaths":{
		"Class1":[
			{ "score":0.7476168860644575,"pvalue":2.1995229373974266E-13,"fdr":7.258425693411508E-12,"coverage":"coverage:[(154 out of 556) , (7 out of 175)]", "EdgesIndex":["hsa:7189 (pp) hsa:4214","hsa:4214 (pp) hsa:4790 hsa:5970"]},
			{ "score":0.7258382642998028,"pvalue":2.399318032499848E-13,"fdr":7.917749507249498E-12,"coverage":"coverage:[(160 out of 556) , (8 out of 175)]", "EdgesIndex":["hsa:7189 (pp) hsa:4214"]},
			{ "score":0.7258382642998028,"pvalue":2.399318032499848E-13,"fdr":7.917749507249498E-12,"coverage":"coverage:[(160 out of 556) , (8 out of 175)]", "EdgesIndex":["hsa:7189 (pp) hsa:4214","hsa:4214 (pp) hsa:1432 hsa:5600 hsa:5603 hsa:6300"]},
			{ "score":0.7228487756246496,"pvalue":4.307346130641915E-13,"fdr":1.3352773004989937E-11,"coverage":"coverage:[(158 out of 556) , (8 out of 175)]", "EdgesIndex":["hsa:7189 (pp) hsa:4214","hsa:4214 (pp) hsa:5599 hsa:5601 hsa:5602"]},
			{ "score":0.5938146840375015,"pvalue":4.409735774983411E-12,"fdr":1.1465313014956869E-10,"coverage":"coverage:[(187 out of 556) , (15 out of 175)]", "EdgesIndex":["hsa:4214 (pp) hsa:4790 hsa:5970"]},
			{ "score":0.5923841559393666,"pvalue":8.522273429436033E-14,"fdr":2.9827957003026117E-12,"coverage":"coverage:[(211 out of 556) , (17 out of 175)]", "EdgesIndex":["hsa:4214 (pp) hsa:1432 hsa:5600 hsa:5603 hsa:6300"]},
			{ "score":0.5892845503726074,"pvalue":1.5604000666367862E-13,"fdr":5.3053602265650734E-12,"coverage":"coverage:[(209 out of 556) , (17 out of 175)]", "EdgesIndex":["hsa:4214 (pp) hsa:5599 hsa:5601 hsa:5602"]}
		],
		"Class2":[
		],
		"Common":[
			{ "score":0.9630642954856361,"pvalue":8.423072620138488E-4,"fdr":0.004211536310069244,"coverage":"coverage:[(529 out of 556) , (175 out of 175)]", "EdgesIndex":["hsa:6885 (pp) hsa:1432 hsa:5600 hsa:5603 hsa:6300"]}
		]
	}
}