{
	"MicroArray" : "GSE2034-3494-7390.txt",
	"class1" : "ERpos",
	"class1mean" : "0.33734466331871354",
	"class1std" : "0.29938261495163077",
	"class1thr" : "0.5",
	"class1min" : "0.502113114413952",
	"class1max" : "0.8299954135453294",
	"class2" : "ERneg",
	"class2mean" : "-0.38065198081901586",
	"class2std" : "0.2863396831547533",
	"class2thr" : "-0.5",
	"class2min" : "-0.5008658449628197",
	"class2max" : "-0.8858521948992238",
	"bothUpThr" : "0.9",
	"subPaths":{
		"Class1":[
		],
		"Class2":[
		],
		"Common":[
			{ "score":1.0,"pvalue":0.9999999999990905,"fdr":0.9999999999990905,"coverage":"coverage:[(556 out of 556) , (175 out of 175)]", "EdgesIndex":["hsa:3633 hsa:4952 hsa:56623 hsa:8867 hsa:8871 (pp) hsa:23533 hsa:5286 hsa:5287 hsa:5288 hsa:5295 hsa:5296 hsa:8503"]},
			{ "score":1.0,"pvalue":0.9999999999990905,"fdr":0.9999999999990905,"coverage":"coverage:[(556 out of 556) , (175 out of 175)]", "EdgesIndex":["hsa:5297 hsa:5298 hsa:55300 hsa:55361 (pp) hsa:4534 hsa:55613 hsa:64419 hsa:8776 hsa:8897 hsa:8898 hsa:9107 hsa:9108 hsa:9110"]},
			{ "score":1.0,"pvalue":0.9999999999990905,"fdr":0.9999999999990905,"coverage":"coverage:[(556 out of 556) , (175 out of 175)]", "EdgesIndex":["hsa:5305 hsa:79837 hsa:8396 (pp) hsa:4534 hsa:55613 hsa:64419 hsa:8776 hsa:8897 hsa:8898 hsa:9107 hsa:9108 hsa:9110"]},
			{ "score":0.9986320109439124,"pvalue":0.9999999999998515,"fdr":0.9999999999998515,"coverage":"coverage:[(555 out of 556) , (175 out of 175)]", "EdgesIndex":["hsa:23533 hsa:5290 hsa:5291 hsa:5293 hsa:5294 hsa:5295 hsa:5296 hsa:8503 (pp) hsa:3633 hsa:4952 hsa:56623 hsa:8867 hsa:8871"]},
			{ "score":0.9986320109439124,"pvalue":0.9999999999998515,"fdr":0.9999999999998515,"coverage":"coverage:[(555 out of 556) , (175 out of 175)]", "EdgesIndex":["hsa:23533 hsa:5290 hsa:5291 hsa:5293 hsa:5294 hsa:5295 hsa:5296 hsa:8503 (pp) hsa:3633 hsa:4952 hsa:56623 hsa:8867 hsa:8871","hsa:3633 hsa:4952 hsa:56623 hsa:8867 hsa:8871 (pp) hsa:23533 hsa:5286 hsa:5287 hsa:5288 hsa:5295 hsa:5296 hsa:8503"]},
			{ "score":0.9972640218878249,"pvalue":0.42173416037309325,"fdr":1.2652024811192797,"coverage":"coverage:[(555 out of 556) , (174 out of 175)]", "EdgesIndex":["hsa:5305 hsa:79837 hsa:8396 (pp) hsa:4534 hsa:55613 hsa:64419 hsa:8776 hsa:8897 hsa:8898 hsa:9107 hsa:9108 hsa:9110","hsa:4534 hsa:55613 hsa:64419 hsa:8776 hsa:8897 hsa:8898 hsa:9107 hsa:9108 hsa:9110 (pp) hsa:23533 hsa:5289 hsa:5295 hsa:5296 hsa:8503"]},
			{ "score":0.9972640218878249,"pvalue":0.42173416037309325,"fdr":1.2652024811192797,"coverage":"coverage:[(555 out of 556) , (174 out of 175)]", "EdgesIndex":["hsa:4534 hsa:55613 hsa:64419 hsa:8776 hsa:8897 hsa:8898 hsa:9107 hsa:9108 hsa:9110 (pp) hsa:23533 hsa:5289 hsa:5295 hsa:5296 hsa:8503"]},
			{ "score":0.9972640218878249,"pvalue":0.42173416037309325,"fdr":1.2652024811192797,"coverage":"coverage:[(555 out of 556) , (174 out of 175)]", "EdgesIndex":["hsa:5297 hsa:5298 hsa:55300 hsa:55361 (pp) hsa:23533 hsa:5289 hsa:5295 hsa:5296 hsa:8503"]},
			{ "score":0.9890560875512996,"pvalue":9.531387277563006E-6,"fdr":7.625109822050405E-5,"coverage":"coverage:[(556 out of 556) , (167 out of 175)]", "EdgesIndex":["hsa:5728 (pp) hsa:5297 hsa:5298 hsa:55300 hsa:55361"]},
			{ "score":0.9890560875512996,"pvalue":9.531387277563006E-6,"fdr":7.625109822050405E-5,"coverage":"coverage:[(556 out of 556) , (167 out of 175)]", "EdgesIndex":["hsa:5728 (pp) hsa:5297 hsa:5298 hsa:55300 hsa:55361","hsa:5297 hsa:5298 hsa:55300 hsa:55361 (pp) hsa:4534 hsa:55613 hsa:64419 hsa:8776 hsa:8897 hsa:8898 hsa:9107 hsa:9108 hsa:9110"]},
			{ "score":0.9863201094391245,"pvalue":1.7460168720420538E-5,"fdr":1.2222118104294376E-4,"coverage":"coverage:[(555 out of 556) , (166 out of 175)]", "EdgesIndex":["hsa:5728 (pp) hsa:23533 hsa:5289 hsa:5295 hsa:5296 hsa:8503"]}
		]
	}
}