{
	"MicroArray" : "GSE2034-3494-7390.txt",
	"class1" : "ERpos",
	"class1mean" : "0.33734466331871354",
	"class1std" : "0.29938261495163077",
	"class1thr" : "0.5",
	"class1min" : "0.502113114413952",
	"class1max" : "0.8299954135453294",
	"class2" : "ERneg",
	"class2mean" : "-0.38065198081901586",
	"class2std" : "0.2863396831547533",
	"class2thr" : "-0.5",
	"class2min" : "-0.5008658449628197",
	"class2max" : "-0.8858521948992238",
	"bothUpThr" : "0.9",
	"subPaths":{
		"Class1":[
		],
		"Class2":[
		],
		"Common":[
			{ "score":0.9534883720930233,"pvalue":0.03801909431987113,"fdr":0.15207637727948453,"coverage":"coverage:[(525 out of 556) , (172 out of 175)]", "EdgesIndex":["hsa:103910 hsa:10398 hsa:10627 hsa:29895 hsa:4633 hsa:4636 hsa:58498 hsa:93408 (pp) hsa:60 hsa:71"]},
			{ "score":0.9521203830369357,"pvalue":0.5428296143155583,"fdr":1.628488842946675,"coverage":"coverage:[(531 out of 556) , (165 out of 175)]", "EdgesIndex":["hsa:6093 hsa:9475 (pp) hsa:103910 hsa:10398 hsa:10627 hsa:29895 hsa:4633 hsa:4636 hsa:58498 hsa:93408"]},
			{ "score":0.9439124487004104,"pvalue":0.3492838916700885,"fdr":1.0478516750102655,"coverage":"coverage:[(522 out of 556) , (168 out of 175)]", "EdgesIndex":["hsa:4478 hsa:7430 (pp) hsa:60 hsa:71"]},
			{ "score":0.9097127222982216,"pvalue":0.2914491589925795,"fdr":0.8743474769777385,"coverage":"coverage:[(502 out of 556) , (163 out of 175)]", "EdgesIndex":["hsa:6093 hsa:9475 (pp) hsa:103910 hsa:10398 hsa:10627 hsa:29895 hsa:4633 hsa:4636 hsa:58498 hsa:93408","hsa:103910 hsa:10398 hsa:10627 hsa:29895 hsa:4633 hsa:4636 hsa:58498 hsa:93408 (pp) hsa:60 hsa:71"]}
		]
	}
}