{
	"MicroArray" : "GSE2034-3494-7390.txt",
	"class1" : "ERpos",
	"class1mean" : "0.33734466331871354",
	"class1std" : "0.29938261495163077",
	"class1thr" : "0.5",
	"class1min" : "0.502113114413952",
	"class1max" : "0.8299954135453294",
	"class2" : "ERneg",
	"class2mean" : "-0.38065198081901586",
	"class2std" : "0.2863396831547533",
	"class2thr" : "-0.5",
	"class2min" : "-0.5008658449628197",
	"class2max" : "-0.8858521948992238",
	"bothUpThr" : "0.9",
	"subPaths":{
		"Class1":[
		],
		"Class2":[
		],
		"Common":[
			{ "score":0.9630642954856361,"pvalue":0.03913263014143993,"fdr":0.15653052056575972,"coverage":"coverage:[(531 out of 556) , (173 out of 175)]", "EdgesIndex":["hsa:5606 hsa:5608 (pp) hsa:1432 hsa:5599 hsa:5600 hsa:5601 hsa:5602 hsa:5603 hsa:6300"]},
			{ "score":0.9507523939808481,"pvalue":0.5525860852241327,"fdr":1.1051721704482653,"coverage":"coverage:[(530 out of 556) , (165 out of 175)]", "EdgesIndex":["hsa:5732 hsa:5734 (pp) hsa:2778"]},
			{ "score":0.945280437756498,"pvalue":0.03521293877550155,"fdr":0.1408517551020062,"coverage":"coverage:[(520 out of 556) , (171 out of 175)]", "EdgesIndex":["hsa:3554 hsa:3556 (pp) hsa:5606 hsa:5608","hsa:5606 hsa:5608 (pp) hsa:1432 hsa:5599 hsa:5600 hsa:5601 hsa:5602 hsa:5603 hsa:6300"]},
			{ "score":0.945280437756498,"pvalue":0.03521293877550155,"fdr":0.1408517551020062,"coverage":"coverage:[(520 out of 556) , (171 out of 175)]", "EdgesIndex":["hsa:3554 hsa:3556 (pp) hsa:5606 hsa:5608"]}
		]
	}
}