{
	"MicroArray" : "GSE2034-3494-7390.txt",
	"class1" : "ERpos",
	"class1mean" : "0.33734466331871354",
	"class1std" : "0.29938261495163077",
	"class1thr" : "0.5",
	"class1min" : "0.502113114413952",
	"class1max" : "0.8299954135453294",
	"class2" : "ERneg",
	"class2mean" : "-0.38065198081901586",
	"class2std" : "0.2863396831547533",
	"class2thr" : "-0.5",
	"class2min" : "-0.5008658449628197",
	"class2max" : "-0.8858521948992238",
	"bothUpThr" : "0.9",
	"subPaths":{
		"Class1":[
		],
		"Class2":[
			{ "score":-0.7782337145098513,"pvalue":3.0802551775270984E-20,"fdr":2.9878475222012852E-18,"coverage":"coverage:[(21 out of 556) , (53 out of 175)]", "EdgesIndex":["hsa:5080 (pp) hsa:3651","hsa:3651 (pp) hsa:3172"]},
			{ "score":-0.7878284705200178,"pvalue":4.0325649194213354E-24,"fdr":7.09731425818155E-22,"coverage":"coverage:[(23 out of 556) , (61 out of 175)]", "EdgesIndex":["hsa:5080 (pp) hsa:3651"]},
			{ "score":-0.7899274294756371,"pvalue":2.2792424925715746E-23,"fdr":3.532825863485941E-21,"coverage":"coverage:[(22 out of 556) , (59 out of 175)]", "EdgesIndex":["hsa:5080 (pp) hsa:3651","hsa:3651 (pp) hsa:2494"]},
			{ "score":-0.7900950096272213,"pvalue":5.537678078241631E-20,"fdr":5.0946638319823E-18,"coverage":"coverage:[(19 out of 556) , (51 out of 175)]", "EdgesIndex":["hsa:5080 (pp) hsa:3651","hsa:3651 (pp) hsa:3172","hsa:3172 (pp) hsa:5313"]}
		],
		"Common":[
			{ "score":0.957592339261286,"pvalue":0.9999999999990415,"fdr":1.999999999998083,"coverage":"coverage:[(532 out of 556) , (168 out of 175)]", "EdgesIndex":["hsa:3651 (pp) hsa:2494"]}
		]
	}
}