{
	"MicroArray" : "GSE2034-3494-7390.txt",
	"class1" : "ERpos",
	"class1mean" : "0.33734466331871354",
	"class1std" : "0.29938261495163077",
	"class1thr" : "0.5",
	"class1min" : "0.502113114413952",
	"class1max" : "0.8299954135453294",
	"class2" : "ERneg",
	"class2mean" : "-0.38065198081901586",
	"class2std" : "0.2863396831547533",
	"class2thr" : "-0.5",
	"class2min" : "-0.5008658449628197",
	"class2max" : "-0.8858521948992238",
	"bothUpThr" : "0.9",
	"subPaths":{
		"Class1":[
			{ "score":0.7010319938783529,"pvalue":4.672656734938627E-20,"fdr":4.3922973308423095E-18,"coverage":"coverage:[(235 out of 556) , (13 out of 175)]", "EdgesIndex":["hsa:5020 (pp) hsa:5021","hsa:5021 (pp) hsa:2776"]},
			{ "score":0.6999460334592552,"pvalue":4.848987582718347E-20,"fdr":4.558048327755246E-18,"coverage":"coverage:[(234 out of 556) , (13 out of 175)]", "EdgesIndex":["hsa:5020 (pp) hsa:5021","hsa:5021 (pp) hsa:2776","hsa:2776 (pp) hsa:3265 hsa:3845 hsa:4893"]},
			{ "score":0.5442293319188948,"pvalue":2.3707690299930336E-10,"fdr":4.504461156986764E-9,"coverage":"coverage:[(183 out of 556) , (17 out of 175)]", "EdgesIndex":["hsa:5020 (pp) hsa:5021","hsa:5021 (pp) hsa:2770 hsa:2771 hsa:2773 hsa:2775","hsa:2770 hsa:2771 hsa:2773 hsa:2775 (pp) hsa:23533 hsa:5290 hsa:5291 hsa:5293 hsa:5294 hsa:5295 hsa:5296 hsa:8503","hsa:23533 hsa:5290 hsa:5291 hsa:5293 hsa:5294 hsa:5295 hsa:5296 hsa:8503 (pp) hsa:1956","hsa:1956 (pp) hsa:5594 hsa:5595","hsa:5594 hsa:5595 (pp) hsa:595"]}
		],
		"Class2":[
			{ "score":-0.5932500198997055,"pvalue":1.17500489493858E-23,"fdr":1.9035079298004997E-21,"coverage":"coverage:[(73 out of 556) , (90 out of 175)]", "EdgesIndex":["hsa:5578 hsa:5579 hsa:5582 (pp) hsa:952"]},
			{ "score":-0.7463155351534186,"pvalue":2.2397911200754885E-18,"fdr":1.6574454288558614E-16,"coverage":"coverage:[(24 out of 556) , (52 out of 175)]", "EdgesIndex":["hsa:4772 hsa:4773 hsa:4775 hsa:4776 (pp) hsa:5997"]}
		],
		"Common":[
			{ "score":0.9986320109439124,"pvalue":0.2393980848151356,"fdr":0.7181942544454069,"coverage":"coverage:[(556 out of 556) , (174 out of 175)]", "EdgesIndex":["hsa:10645 hsa:84254 (pp) hsa:51422 hsa:53632 hsa:5562 hsa:5563 hsa:5564 hsa:5565 hsa:5571"]},
			{ "score":0.9986320109439124,"pvalue":0.9999999999998515,"fdr":0.9999999999998515,"coverage":"coverage:[(555 out of 556) , (175 out of 175)]", "EdgesIndex":["hsa:2770 hsa:2771 hsa:2773 hsa:2775 (pp) hsa:23533 hsa:5290 hsa:5291 hsa:5293 hsa:5294 hsa:5295 hsa:5296 hsa:8503"]},
			{ "score":0.9958960328317373,"pvalue":0.5605496911479472,"fdr":1.1210993822958943,"coverage":"coverage:[(554 out of 556) , (174 out of 175)]", "EdgesIndex":["hsa:2770 hsa:2771 hsa:2773 hsa:2775 (pp) hsa:3760 hsa:3762 hsa:3763 hsa:3765"]},
			{ "score":0.9767441860465116,"pvalue":0.017468579921240193,"fdr":0.06987431968496077,"coverage":"coverage:[(539 out of 556) , (175 out of 175)]", "EdgesIndex":["hsa:23533 hsa:5290 hsa:5291 hsa:5293 hsa:5294 hsa:5295 hsa:5296 hsa:8503 (pp) hsa:1956"]},
			{ "score":0.9767441860465116,"pvalue":0.017468579921240193,"fdr":0.06987431968496077,"coverage":"coverage:[(539 out of 556) , (175 out of 175)]", "EdgesIndex":["hsa:2770 hsa:2771 hsa:2773 hsa:2775 (pp) hsa:23533 hsa:5290 hsa:5291 hsa:5293 hsa:5294 hsa:5295 hsa:5296 hsa:8503","hsa:23533 hsa:5290 hsa:5291 hsa:5293 hsa:5294 hsa:5295 hsa:5296 hsa:8503 (pp) hsa:1956"]},
			{ "score":0.9658002735978112,"pvalue":0.0013889945074171608,"fdr":0.0069449725370858036,"coverage":"coverage:[(531 out of 556) , (175 out of 175)]", "EdgesIndex":["hsa:2770 hsa:2771 hsa:2773 hsa:2775 (pp) hsa:23236 hsa:5330 hsa:5331 hsa:5332"]},
			{ "score":0.9466484268125855,"pvalue":2.4030549506198792E-5,"fdr":1.6821384654339155E-4,"coverage":"coverage:[(517 out of 556) , (175 out of 175)]", "EdgesIndex":["hsa:23236 hsa:5330 hsa:5331 hsa:5332 (pp) hsa:1956"]}
		]
	}
}