{
	"MicroArray" : "GSE2034-3494-7390.txt",
	"class1" : "ERpos",
	"class1mean" : "0.33734466331871354",
	"class1std" : "0.29938261495163077",
	"class1thr" : "0.5",
	"class1min" : "0.502113114413952",
	"class1max" : "0.8299954135453294",
	"class2" : "ERneg",
	"class2mean" : "-0.38065198081901586",
	"class2std" : "0.2863396831547533",
	"class2thr" : "-0.5",
	"class2min" : "-0.5008658449628197",
	"class2max" : "-0.8858521948992238",
	"bothUpThr" : "0.9",
	"subPaths":{
		"Class1":[
			{ "score":0.6623652649157431,"pvalue":4.470016390952858E-17,"fdr":2.6820098345717148E-15,"coverage":"coverage:[(219 out of 556) , (14 out of 175)]", "EdgesIndex":["hsa:5058 (pp) hsa:6416"]},
			{ "score":0.6584766584766585,"pvalue":1.594398419692367E-16,"fdr":8.928631150277255E-15,"coverage":"coverage:[(216 out of 556) , (14 out of 175)]", "EdgesIndex":["hsa:5058 (pp) hsa:6416","hsa:6416 (pp) hsa:5599 hsa:5601 hsa:5602"]},
			{ "score":0.531986531986532,"pvalue":1.8131844655510515E-20,"fdr":1.831316310206562E-18,"coverage":"coverage:[(312 out of 556) , (30 out of 175)]", "EdgesIndex":["hsa:6416 (pp) hsa:5599 hsa:5601 hsa:5602"]}
		],
		"Class2":[
			{ "score":-0.503430087963813,"pvalue":7.121263466216148E-16,"fdr":3.631844367770236E-14,"coverage":"coverage:[(85 out of 556) , (81 out of 175)]", "EdgesIndex":["hsa:1432 hsa:5600 hsa:5603 hsa:6300 (pp) hsa:3576","hsa:3576 (pp) hsa:3577 hsa:3579"]},
			{ "score":-0.503430087963813,"pvalue":7.121263466216148E-16,"fdr":3.631844367770236E-14,"coverage":"coverage:[(85 out of 556) , (81 out of 175)]", "EdgesIndex":["hsa:3576 (pp) hsa:3577 hsa:3579"]},
			{ "score":-0.5096694059706235,"pvalue":1.267750169884265E-19,"fdr":1.090265146100468E-17,"coverage":"coverage:[(97 out of 556) , (94 out of 175)]", "EdgesIndex":["hsa:1432 hsa:5600 hsa:5603 hsa:6300 (pp) hsa:3576"]},
			{ "score":-0.7328584149599288,"pvalue":1.0325829926171583E-16,"fdr":5.885723057917802E-15,"coverage":"coverage:[(24 out of 556) , (49 out of 175)]", "EdgesIndex":["hsa:10392 (pp) hsa:4790 hsa:5970","hsa:4790 hsa:5970 (pp) hsa:2919"]},
			{ "score":-0.7496781576312402,"pvalue":4.74141018472623E-24,"fdr":8.107811415881853E-22,"coverage":"coverage:[(30 out of 556) , (66 out of 175)]", "EdgesIndex":["hsa:4790 hsa:5970 (pp) hsa:2919"]},
			{ "score":-0.7502623294858342,"pvalue":6.556123768622908E-28,"fdr":2.0192861207358556E-25,"coverage":"coverage:[(34 out of 556) , (75 out of 175)]", "EdgesIndex":["hsa:1432 hsa:5600 hsa:5603 hsa:6300 (pp) hsa:2919"]},
			{ "score":-0.7515307480699265,"pvalue":2.9222963032588133E-26,"fdr":6.721281497495271E-24,"coverage":"coverage:[(32 out of 556) , (71 out of 175)]", "EdgesIndex":["hsa:3725 (pp) hsa:2919"]}
		],
		"Common":[
		]
	}
}