{
	"MicroArray" : "GSE2034-3494-7390.txt",
	"class1" : "ERpos",
	"class1mean" : "0.33734466331871354",
	"class1std" : "0.29938261495163077",
	"class1thr" : "0.5",
	"class1min" : "0.502113114413952",
	"class1max" : "0.8299954135453294",
	"class2" : "ERneg",
	"class2mean" : "-0.38065198081901586",
	"class2std" : "0.2863396831547533",
	"class2thr" : "-0.5",
	"class2min" : "-0.5008658449628197",
	"class2max" : "-0.8858521948992238",
	"bothUpThr" : "0.9",
	"subPaths":{
		"Class1":[
		],
		"Class2":[
			{ "score":-0.5425080694640808,"pvalue":6.846667110993227E-11,"fdr":1.4378000933085776E-9,"coverage":"coverage:[(49 out of 556) , (52 out of 175)]", "EdgesIndex":["hsa:4306 (pp) hsa:6446","hsa:6446 (pp) hsa:23327"]},
			{ "score":-0.5425080694640808,"pvalue":6.846667110993227E-11,"fdr":1.4378000933085776E-9,"coverage":"coverage:[(49 out of 556) , (52 out of 175)]", "EdgesIndex":["hsa:4306 (pp) hsa:6446","hsa:6446 (pp) hsa:23327","hsa:23327 (pp) hsa:6337 hsa:6338 hsa:6340"]},
			{ "score":-0.5875634517766498,"pvalue":4.349498251074959E-15,"fdr":1.913779230472982E-13,"coverage":"coverage:[(52 out of 556) , (63 out of 175)]", "EdgesIndex":["hsa:6446 (pp) hsa:23327","hsa:23327 (pp) hsa:6337 hsa:6338 hsa:6340"]},
			{ "score":-0.6095045683442392,"pvalue":4.864832781219281E-12,"fdr":1.2648565231170132E-10,"coverage":"coverage:[(37 out of 556) , (48 out of 175)]", "EdgesIndex":["hsa:5170 (pp) hsa:6446","hsa:6446 (pp) hsa:23327"]},
			{ "score":-0.6095045683442392,"pvalue":4.864832781219281E-12,"fdr":1.2648565231170132E-10,"coverage":"coverage:[(37 out of 556) , (48 out of 175)]", "EdgesIndex":["hsa:5170 (pp) hsa:6446","hsa:6446 (pp) hsa:23327","hsa:23327 (pp) hsa:6337 hsa:6338 hsa:6340"]}
		],
		"Common":[
		]
	}
}