{
	"MicroArray" : "GSE2034-3494-7390.txt",
	"class1" : "ERpos",
	"class1mean" : "0.33734466331871354",
	"class1std" : "0.29938261495163077",
	"class1thr" : "0.5",
	"class1min" : "0.502113114413952",
	"class1max" : "0.8299954135453294",
	"class2" : "ERneg",
	"class2mean" : "-0.38065198081901586",
	"class2std" : "0.2863396831547533",
	"class2thr" : "-0.5",
	"class2min" : "-0.5008658449628197",
	"class2max" : "-0.8858521948992238",
	"bothUpThr" : "0.9",
	"subPaths":{
		"Class1":[
			{ "score":0.6896888516813171,"pvalue":1.3545529310205126E-13,"fdr":4.605479965469743E-12,"coverage":"coverage:[(173 out of 556) , (10 out of 175)]", "EdgesIndex":["hsa:6416 (pp) hsa:5599 hsa:5601 hsa:5602","hsa:5599 hsa:5601 hsa:5602 (pp) hsa:7157"]},
			{ "score":0.6819221967963388,"pvalue":2.7913720945631082E-21,"fdr":3.2379916296932054E-19,"coverage":"coverage:[(252 out of 556) , (15 out of 175)]", "EdgesIndex":["hsa:6416 (pp) hsa:5599 hsa:5601 hsa:5602","hsa:5599 hsa:5601 hsa:5602 (pp) hsa:3727"]},
			{ "score":0.6241049752619772,"pvalue":3.329682811935079E-10,"fdr":5.993429061483143E-9,"coverage":"coverage:[(151 out of 556) , (11 out of 175)]", "EdgesIndex":["hsa:8491 (pp) hsa:4214"]},
			{ "score":0.6220725452635482,"pvalue":5.61512865689224E-10,"fdr":9.545718716716809E-9,"coverage":"coverage:[(150 out of 556) , (11 out of 175)]", "EdgesIndex":["hsa:8491 (pp) hsa:4214","hsa:4214 (pp) hsa:5605"]},
			{ "score":0.615841211017242,"pvalue":9.528592459862235E-10,"fdr":1.6198607181765798E-8,"coverage":"coverage:[(147 out of 556) , (11 out of 175)]", "EdgesIndex":["hsa:8491 (pp) hsa:4214","hsa:4214 (pp) hsa:1147 hsa:3551 hsa:8517"]},
			{ "score":0.6117064228192314,"pvalue":1.7091449027253854E-14,"fdr":6.836579610901542E-13,"coverage":"coverage:[(211 out of 556) , (16 out of 175)]", "EdgesIndex":["hsa:5879 hsa:5880 hsa:5881 hsa:998 (pp) hsa:4214"]},
			{ "score":0.6102177627831574,"pvalue":1.8147003280849433E-14,"fdr":7.077331279531279E-13,"coverage":"coverage:[(210 out of 556) , (16 out of 175)]", "EdgesIndex":["hsa:5879 hsa:5880 hsa:5881 hsa:998 (pp) hsa:4214","hsa:4214 (pp) hsa:5605"]},
			{ "score":0.6056824981715832,"pvalue":5.845482151416331E-14,"fdr":2.1043735745098792E-12,"coverage":"coverage:[(207 out of 556) , (16 out of 175)]", "EdgesIndex":["hsa:5879 hsa:5880 hsa:5881 hsa:998 (pp) hsa:4214","hsa:4214 (pp) hsa:1147 hsa:3551 hsa:8517"]},
			{ "score":0.5908402233669539,"pvalue":8.591706357938433E-14,"fdr":3.0070972252784513E-12,"coverage":"coverage:[(210 out of 556) , (17 out of 175)]", "EdgesIndex":["hsa:4214 (pp) hsa:5605"]},
			{ "score":0.5861374433522342,"pvalue":2.839630525898383E-13,"fdr":9.086817682874826E-12,"coverage":"coverage:[(207 out of 556) , (17 out of 175)]", "EdgesIndex":["hsa:4214 (pp) hsa:1147 hsa:3551 hsa:8517"]},
			{ "score":0.5813253012048194,"pvalue":3.762699888716472E-12,"fdr":1.0159289699534474E-10,"coverage":"coverage:[(192 out of 556) , (16 out of 175)]", "EdgesIndex":["hsa:5879 hsa:5880 hsa:5881 hsa:998 (pp) hsa:4214","hsa:4214 (pp) hsa:1147 hsa:3551 hsa:8517","hsa:1147 hsa:3551 hsa:8517 (pp) hsa:4790 hsa:4791 hsa:5970 hsa:5971"]},
			{ "score":0.5609030939329184,"pvalue":1.586505962619892E-11,"fdr":3.6489637140257516E-10,"coverage":"coverage:[(192 out of 556) , (17 out of 175)]", "EdgesIndex":["hsa:4214 (pp) hsa:1147 hsa:3551 hsa:8517","hsa:1147 hsa:3551 hsa:8517 (pp) hsa:4790 hsa:4791 hsa:5970 hsa:5971"]},
			{ "score":0.5562649640861931,"pvalue":6.472338716658269E-22,"fdr":8.090423395822836E-20,"coverage":"coverage:[(312 out of 556) , (28 out of 175)]", "EdgesIndex":["hsa:7867 hsa:9261 (pp) hsa:3315"]},
			{ "score":0.5562649640861931,"pvalue":6.472338716658269E-22,"fdr":8.090423395822836E-20,"coverage":"coverage:[(312 out of 556) , (28 out of 175)]", "EdgesIndex":["hsa:1432 hsa:5600 hsa:5603 hsa:6300 (pp) hsa:7867 hsa:9261","hsa:7867 hsa:9261 (pp) hsa:3315"]},
			{ "score":0.531986531986532,"pvalue":1.8131844655510515E-20,"fdr":1.831316310206562E-18,"coverage":"coverage:[(312 out of 556) , (30 out of 175)]", "EdgesIndex":["hsa:6416 (pp) hsa:5599 hsa:5601 hsa:5602"]},
			{ "score":0.5164691814327643,"pvalue":9.21004809941879E-17,"fdr":5.341827897662898E-15,"coverage":"coverage:[(279 out of 556) , (28 out of 175)]", "EdgesIndex":["hsa:6416 (pp) hsa:5599 hsa:5601 hsa:5602","hsa:5599 hsa:5601 hsa:5602 (pp) hsa:3725"]},
			{ "score":0.5154816045314671,"pvalue":2.6406414006502657E-8,"fdr":3.168769680780319E-7,"coverage":"coverage:[(159 out of 556) , (16 out of 175)]", "EdgesIndex":["hsa:5495 (pp) hsa:6885","hsa:6885 (pp) hsa:5608","hsa:5608 (pp) hsa:1432 hsa:5600 hsa:5603 hsa:6300","hsa:1432 hsa:5600 hsa:5603 hsa:6300 (pp) hsa:7867 hsa:9261","hsa:7867 hsa:9261 (pp) hsa:3315"]},
			{ "score":0.5129586959419572,"pvalue":1.658177475556803E-12,"fdr":4.6428969315590485E-11,"coverage":"coverage:[(227 out of 556) , (23 out of 175)]", "EdgesIndex":["hsa:6416 (pp) hsa:5599 hsa:5601 hsa:5602","hsa:5599 hsa:5601 hsa:5602 (pp) hsa:2002"]},
			{ "score":0.5084539728146757,"pvalue":7.02600844332362E-16,"fdr":3.583264306095046E-14,"coverage":"coverage:[(273 out of 556) , (28 out of 175)]", "EdgesIndex":["hsa:5606 (pp) hsa:1432 hsa:5600 hsa:5603 hsa:6300","hsa:1432 hsa:5600 hsa:5603 hsa:6300 (pp) hsa:7867 hsa:9261","hsa:7867 hsa:9261 (pp) hsa:3315"]}
		],
		"Class2":[
			{ "score":-0.5064834526804723,"pvalue":4.0386834269864025E-9,"fdr":6.058025140479604E-8,"coverage":"coverage:[(51 out of 556) , (49 out of 175)]", "EdgesIndex":["hsa:7124 (pp) hsa:7132"]},
			{ "score":-0.5157059953326038,"pvalue":5.046361515928558E-13,"fdr":1.5643720699378528E-11,"coverage":"coverage:[(67 out of 556) , (66 out of 175)]", "EdgesIndex":["hsa:1326 (pp) hsa:5605","hsa:5605 (pp) hsa:5594 hsa:5595","hsa:5594 hsa:5595 (pp) hsa:3925"]},
			{ "score":-0.5212038303693571,"pvalue":5.033325050423575E-10,"fdr":9.059985090762434E-9,"coverage":"coverage:[(51 out of 556) , (51 out of 175)]", "EdgesIndex":["hsa:1326 (pp) hsa:5604"]},
			{ "score":-0.5269154026046471,"pvalue":4.015548988378147E-33,"fdr":2.7948220959111905E-30,"coverage":"coverage:[(126 out of 556) , (128 out of 175)]", "EdgesIndex":["hsa:1432 hsa:5600 hsa:5603 hsa:6300 (pp) hsa:994"]},
			{ "score":-0.5519082824880913,"pvalue":2.581638433687469E-32,"fdr":1.5231666758756065E-29,"coverage":"coverage:[(111 out of 556) , (121 out of 175)]", "EdgesIndex":["hsa:5606 (pp) hsa:1432 hsa:5600 hsa:5603 hsa:6300","hsa:1432 hsa:5600 hsa:5603 hsa:6300 (pp) hsa:994"]},
			{ "score":-0.5535443114863633,"pvalue":8.103750242058855E-10,"fdr":1.3776375411500055E-8,"coverage":"coverage:[(42 out of 556) , (46 out of 175)]", "EdgesIndex":["hsa:356 (pp) hsa:355","hsa:355 (pp) hsa:1616","hsa:1616 (pp) hsa:4217","hsa:4217 (pp) hsa:5608","hsa:5608 (pp) hsa:1432 hsa:5600 hsa:5603 hsa:6300","hsa:1432 hsa:5600 hsa:5603 hsa:6300 (pp) hsa:2005"]},
			{ "score":-0.5598336074296217,"pvalue":9.431308657220457E-13,"fdr":2.8293925971661372E-11,"coverage":"coverage:[(52 out of 556) , (58 out of 175)]", "EdgesIndex":["hsa:4217 (pp) hsa:5608","hsa:5608 (pp) hsa:1432 hsa:5600 hsa:5603 hsa:6300","hsa:1432 hsa:5600 hsa:5603 hsa:6300 (pp) hsa:1649"]},
			{ "score":-0.5681297373523708,"pvalue":8.958767853478283E-11,"fdr":1.7917535706956565E-9,"coverage":"coverage:[(42 out of 556) , (48 out of 175)]", "EdgesIndex":["hsa:356 (pp) hsa:355","hsa:355 (pp) hsa:1616","hsa:1616 (pp) hsa:4217","hsa:4217 (pp) hsa:5608","hsa:5608 (pp) hsa:1432 hsa:5600 hsa:5603 hsa:6300","hsa:1432 hsa:5600 hsa:5603 hsa:6300 (pp) hsa:4149"]},
			{ "score":-0.5681297373523708,"pvalue":8.958767853478283E-11,"fdr":1.7917535706956565E-9,"coverage":"coverage:[(42 out of 556) , (48 out of 175)]", "EdgesIndex":["hsa:356 (pp) hsa:355","hsa:355 (pp) hsa:1616","hsa:1616 (pp) hsa:4217","hsa:4217 (pp) hsa:5608"]},
			{ "score":-0.5681297373523708,"pvalue":8.958767853478283E-11,"fdr":1.7917535706956565E-9,"coverage":"coverage:[(42 out of 556) , (48 out of 175)]", "EdgesIndex":["hsa:356 (pp) hsa:355","hsa:355 (pp) hsa:1616","hsa:1616 (pp) hsa:4217","hsa:4217 (pp) hsa:5608","hsa:5608 (pp) hsa:1432 hsa:5600 hsa:5603 hsa:6300"]},
			{ "score":-0.5699233966901096,"pvalue":3.1079079490823157E-12,"fdr":8.391351462522252E-11,"coverage":"coverage:[(47 out of 556) , (54 out of 175)]", "EdgesIndex":["hsa:673 (pp) hsa:5605","hsa:5605 (pp) hsa:5594 hsa:5595","hsa:5594 hsa:5595 (pp) hsa:3925"]},
			{ "score":-0.5702357563850687,"pvalue":2.2525371347414883E-10,"fdr":4.279820556008828E-9,"coverage":"coverage:[(40 out of 556) , (46 out of 175)]", "EdgesIndex":["hsa:356 (pp) hsa:355","hsa:355 (pp) hsa:1616","hsa:1616 (pp) hsa:4217","hsa:4217 (pp) hsa:5608","hsa:5608 (pp) hsa:1432 hsa:5600 hsa:5603 hsa:6300","hsa:1432 hsa:5600 hsa:5603 hsa:6300 (pp) hsa:4208"]},
			{ "score":-0.575070821529745,"pvalue":6.910651442594054E-13,"fdr":2.073195432778216E-11,"coverage":"coverage:[(48 out of 556) , (56 out of 175)]", "EdgesIndex":["hsa:356 (pp) hsa:355","hsa:355 (pp) hsa:1616","hsa:1616 (pp) hsa:4217"]},
			{ "score":-0.5991903912221364,"pvalue":3.0166850721416424E-13,"fdr":9.653392230853256E-12,"coverage":"coverage:[(43 out of 556) , (54 out of 175)]", "EdgesIndex":["hsa:356 (pp) hsa:355","hsa:355 (pp) hsa:1616","hsa:1616 (pp) hsa:4217","hsa:4217 (pp) hsa:5606"]},
			{ "score":-0.6180429246998909,"pvalue":5.69085861042545E-26,"fdr":1.2861340459561517E-23,"coverage":"coverage:[(69 out of 556) , (92 out of 175)]", "EdgesIndex":["hsa:5608 (pp) hsa:1432 hsa:5600 hsa:5603 hsa:6300","hsa:1432 hsa:5600 hsa:5603 hsa:6300 (pp) hsa:994"]},
			{ "score":-0.6243739565943239,"pvalue":8.86282761943903E-13,"fdr":2.658848285831709E-11,"coverage":"coverage:[(36 out of 556) , (49 out of 175)]", "EdgesIndex":["hsa:5495 (pp) hsa:6885","hsa:6885 (pp) hsa:5608","hsa:5608 (pp) hsa:1432 hsa:5600 hsa:5603 hsa:6300","hsa:1432 hsa:5600 hsa:5603 hsa:6300 (pp) hsa:994"]},
			{ "score":-0.6270496365920765,"pvalue":1.412061422254893E-26,"fdr":3.530153555637232E-24,"coverage":"coverage:[(67 out of 556) , (92 out of 175)]", "EdgesIndex":["hsa:6885 (pp) hsa:5608","hsa:5608 (pp) hsa:1432 hsa:5600 hsa:5603 hsa:6300","hsa:1432 hsa:5600 hsa:5603 hsa:6300 (pp) hsa:994"]},
			{ "score":-0.6512377640139896,"pvalue":2.895076047550321E-22,"fdr":3.8504511432419265E-20,"coverage":"coverage:[(51 out of 556) , (76 out of 175)]", "EdgesIndex":["hsa:5921 (pp) hsa:22800 hsa:22808 hsa:3265 hsa:3845 hsa:4893 hsa:6237"]},
			{ "score":-0.6712380236708623,"pvalue":1.4485464466676186E-16,"fdr":8.111860101338665E-15,"coverage":"coverage:[(35 out of 556) , (56 out of 175)]", "EdgesIndex":["hsa:5921 (pp) hsa:22800 hsa:22808 hsa:3265 hsa:3845 hsa:4893 hsa:6237","hsa:22800 hsa:22808 hsa:3265 hsa:3845 hsa:4893 hsa:6237 (pp) hsa:4342","hsa:4342 (pp) hsa:5605","hsa:5605 (pp) hsa:5594 hsa:5595","hsa:5594 hsa:5595 (pp) hsa:100137049 hsa:123745 hsa:255189 hsa:283748 hsa:5321 hsa:8605 hsa:8681"]},
			{ "score":-0.6758847348065296,"pvalue":2.3730758567392966E-26,"fdr":5.695382056174312E-24,"coverage":"coverage:[(51 out of 556) , (83 out of 175)]", "EdgesIndex":["hsa:23118 (pp) hsa:6885","hsa:6885 (pp) hsa:5608","hsa:5608 (pp) hsa:1432 hsa:5600 hsa:5603 hsa:6300","hsa:1432 hsa:5600 hsa:5603 hsa:6300 (pp) hsa:994"]},
			{ "score":-0.676071608006981,"pvalue":4.3296336768295367E-17,"fdr":2.6410765428660174E-15,"coverage":"coverage:[(35 out of 556) , (57 out of 175)]", "EdgesIndex":["hsa:5921 (pp) hsa:22800 hsa:22808 hsa:3265 hsa:3845 hsa:4893 hsa:6237","hsa:22800 hsa:22808 hsa:3265 hsa:3845 hsa:4893 hsa:6237 (pp) hsa:4342","hsa:4342 (pp) hsa:5605","hsa:5605 (pp) hsa:5594 hsa:5595","hsa:5594 hsa:5595 (pp) hsa:27330 hsa:6195 hsa:6196 hsa:6197"]},
			{ "score":-0.6807651213092539,"pvalue":1.2770011235722949E-17,"fdr":8.428207415577146E-16,"coverage":"coverage:[(35 out of 556) , (58 out of 175)]", "EdgesIndex":["hsa:5921 (pp) hsa:22800 hsa:22808 hsa:3265 hsa:3845 hsa:4893 hsa:6237","hsa:22800 hsa:22808 hsa:3265 hsa:3845 hsa:4893 hsa:6237 (pp) hsa:4342","hsa:4342 (pp) hsa:5605","hsa:5605 (pp) hsa:5594 hsa:5595"]},
			{ "score":-0.6809905964475469,"pvalue":4.656660475806807E-21,"fdr":5.262026337661692E-19,"coverage":"coverage:[(41 out of 556) , (68 out of 175)]", "EdgesIndex":["hsa:5921 (pp) hsa:22800 hsa:22808 hsa:3265 hsa:3845 hsa:4893 hsa:6237","hsa:22800 hsa:22808 hsa:3265 hsa:3845 hsa:4893 hsa:6237 (pp) hsa:4342"]},
			{ "score":-0.6809905964475469,"pvalue":4.656660475806807E-21,"fdr":5.262026337661692E-19,"coverage":"coverage:[(41 out of 556) , (68 out of 175)]", "EdgesIndex":["hsa:5921 (pp) hsa:22800 hsa:22808 hsa:3265 hsa:3845 hsa:4893 hsa:6237","hsa:22800 hsa:22808 hsa:3265 hsa:3845 hsa:4893 hsa:6237 (pp) hsa:4342","hsa:4342 (pp) hsa:5605"]},
			{ "score":-0.7078561650696137,"pvalue":9.752411980999372E-15,"fdr":4.0960130320197363E-13,"coverage":"coverage:[(25 out of 556) , (46 out of 175)]", "EdgesIndex":["hsa:5921 (pp) hsa:22800 hsa:22808 hsa:3265 hsa:3845 hsa:4893 hsa:6237","hsa:22800 hsa:22808 hsa:3265 hsa:3845 hsa:4893 hsa:6237 (pp) hsa:4342","hsa:4342 (pp) hsa:5605","hsa:5605 (pp) hsa:5594 hsa:5595","hsa:5594 hsa:5595 (pp) hsa:3925"]},
			{ "score":-0.7125256673511293,"pvalue":1.4249515451730704E-14,"fdr":5.699806180692281E-13,"coverage":"coverage:[(24 out of 556) , (45 out of 175)]", "EdgesIndex":["hsa:5921 (pp) hsa:22800 hsa:22808 hsa:3265 hsa:3845 hsa:4893 hsa:6237","hsa:22800 hsa:22808 hsa:3265 hsa:3845 hsa:4893 hsa:6237 (pp) hsa:4342","hsa:4342 (pp) hsa:5605","hsa:5605 (pp) hsa:5594 hsa:5595","hsa:5594 hsa:5595 (pp) hsa:2005"]},
			{ "score":-0.7248369207232856,"pvalue":1.920866213723243E-25,"fdr":3.995401724544346E-23,"coverage":"coverage:[(37 out of 556) , (73 out of 175)]", "EdgesIndex":["hsa:9064 (pp) hsa:5608","hsa:5608 (pp) hsa:1432 hsa:5600 hsa:5603 hsa:6300","hsa:1432 hsa:5600 hsa:5603 hsa:6300 (pp) hsa:994"]},
			{ "score":-0.7567140600315956,"pvalue":4.492449480521942E-18,"fdr":3.144714636365359E-16,"coverage":"coverage:[(22 out of 556) , (50 out of 175)]", "EdgesIndex":["hsa:5921 (pp) hsa:22800 hsa:22808 hsa:3265 hsa:3845 hsa:4893 hsa:6237","hsa:22800 hsa:22808 hsa:3265 hsa:3845 hsa:4893 hsa:6237 (pp) hsa:673"]},
			{ "score":-0.7763578274760383,"pvalue":4.7796245086059844E-23,"fdr":7.073844272736857E-21,"coverage":"coverage:[(24 out of 556) , (60 out of 175)]", "EdgesIndex":["hsa:1616 (pp) hsa:4217","hsa:4217 (pp) hsa:5608","hsa:5608 (pp) hsa:1432 hsa:5600 hsa:5603 hsa:6300","hsa:1432 hsa:5600 hsa:5603 hsa:6300 (pp) hsa:994"]},
			{ "score":-0.7851645497898863,"pvalue":4.5061550350816585E-27,"fdr":1.2256741695422112E-24,"coverage":"coverage:[(26 out of 556) , (68 out of 175)]", "EdgesIndex":["hsa:4217 (pp) hsa:5608","hsa:5608 (pp) hsa:1432 hsa:5600 hsa:5603 hsa:6300","hsa:1432 hsa:5600 hsa:5603 hsa:6300 (pp) hsa:994"]},
			{ "score":-0.8100922409115574,"pvalue":5.8767686105880106E-21,"fdr":6.464445471646811E-19,"coverage":"coverage:[(17 out of 556) , (51 out of 175)]", "EdgesIndex":["hsa:7046 hsa:7048 (pp) hsa:1616","hsa:1616 (pp) hsa:4217","hsa:4217 (pp) hsa:5608","hsa:5608 (pp) hsa:1432 hsa:5600 hsa:5603 hsa:6300","hsa:1432 hsa:5600 hsa:5603 hsa:6300 (pp) hsa:994"]},
			{ "score":-0.8100922409115574,"pvalue":5.8767686105880106E-21,"fdr":6.464445471646811E-19,"coverage":"coverage:[(17 out of 556) , (51 out of 175)]", "EdgesIndex":["hsa:7040 hsa:7042 hsa:7043 (pp) hsa:7046 hsa:7048","hsa:7046 hsa:7048 (pp) hsa:1616","hsa:1616 (pp) hsa:4217","hsa:4217 (pp) hsa:5608","hsa:5608 (pp) hsa:1432 hsa:5600 hsa:5603 hsa:6300","hsa:1432 hsa:5600 hsa:5603 hsa:6300 (pp) hsa:994"]},
			{ "score":-0.8166014240360018,"pvalue":3.5640207566549027E-22,"fdr":4.7045073987844716E-20,"coverage":"coverage:[(17 out of 556) , (53 out of 175)]", "EdgesIndex":["hsa:355 (pp) hsa:1616","hsa:1616 (pp) hsa:4217","hsa:4217 (pp) hsa:5608","hsa:5608 (pp) hsa:1432 hsa:5600 hsa:5603 hsa:6300","hsa:1432 hsa:5600 hsa:5603 hsa:6300 (pp) hsa:994"]}
		],
		"Common":[
			{ "score":1.0,"pvalue":0.9999999999990905,"fdr":0.9999999999990905,"coverage":"coverage:[(556 out of 556) , (175 out of 175)]", "EdgesIndex":["hsa:2246 hsa:2247 hsa:2248 hsa:2249 hsa:2250 hsa:2251 hsa:2252 hsa:2253 hsa:2254 hsa:2255 hsa:2256 hsa:2257 hsa:2258 hsa:2259 hsa:26281 hsa:26291 hsa:27006 hsa:8074 hsa:8817 hsa:8822 hsa:8823 hsa:9965 (pp) hsa:2260 hsa:2261 hsa:2263 hsa:2264"]},
			{ "score":0.9931600547195623,"pvalue":0.09193947594313653,"fdr":0.2758184278294096,"coverage":"coverage:[(554 out of 556) , (172 out of 175)]", "EdgesIndex":["hsa:5578 hsa:5579 hsa:5582 (pp) hsa:22800 hsa:22808 hsa:3265 hsa:3845 hsa:4893 hsa:6237"]},
			{ "score":0.9890560875512996,"pvalue":0.6875417999788669,"fdr":1.3750835999577338,"coverage":"coverage:[(549 out of 556) , (174 out of 175)]", "EdgesIndex":["hsa:9693 (pp) hsa:22800 hsa:22808 hsa:3265 hsa:3845 hsa:4893 hsa:6237"]},
			{ "score":0.9890560875512996,"pvalue":0.9999999999989618,"fdr":1.9999999999979237,"coverage":"coverage:[(550 out of 556) , (173 out of 175)]", "EdgesIndex":["hsa:5879 hsa:5880 hsa:5881 hsa:998 (pp) hsa:5058 hsa:5062"]},
			{ "score":0.9822161422708618,"pvalue":0.32109892136381796,"fdr":0.9632967640914538,"coverage":"coverage:[(544 out of 556) , (174 out of 175)]", "EdgesIndex":["hsa:10368 hsa:10369 hsa:27091 hsa:27092 hsa:55799 hsa:59283 hsa:59284 hsa:59285 hsa:773 hsa:774 hsa:775 hsa:776 hsa:777 hsa:778 hsa:779 hsa:781 hsa:782 hsa:783 hsa:784 hsa:785 hsa:786 hsa:8911 hsa:8912 hsa:8913 hsa:9254 hsa:93589 (pp) hsa:5923 hsa:5924"]},
			{ "score":0.9794801641586868,"pvalue":0.5408161615744866,"fdr":1.62244848472346,"coverage":"coverage:[(543 out of 556) , (173 out of 175)]", "EdgesIndex":["hsa:5923 hsa:5924 (pp) hsa:22800 hsa:22808 hsa:3265 hsa:3845 hsa:4893 hsa:6237"]},
			{ "score":0.9767441860465116,"pvalue":0.7745025913953641,"fdr":1.5490051827907283,"coverage":"coverage:[(542 out of 556) , (172 out of 175)]", "EdgesIndex":["hsa:6654 hsa:6655 (pp) hsa:22800 hsa:22808 hsa:3265 hsa:3845 hsa:4893 hsa:6237"]},
			{ "score":0.9753761969904241,"pvalue":0.3998107486294276,"fdr":1.199432245888283,"coverage":"coverage:[(544 out of 556) , (169 out of 175)]", "EdgesIndex":["hsa:5058 hsa:5062 (pp) hsa:10746 hsa:4215"]},
			{ "score":0.9726402188782489,"pvalue":0.1859630297703284,"fdr":0.5578890893109851,"coverage":"coverage:[(538 out of 556) , (173 out of 175)]", "EdgesIndex":["hsa:10368 hsa:10369 hsa:27091 hsa:27092 hsa:55799 hsa:59283 hsa:59284 hsa:59285 hsa:773 hsa:774 hsa:775 hsa:776 hsa:777 hsa:778 hsa:779 hsa:781 hsa:782 hsa:783 hsa:784 hsa:785 hsa:786 hsa:8911 hsa:8912 hsa:8913 hsa:9254 hsa:93589 (pp) hsa:10125 hsa:10235 hsa:115727 hsa:25780"]},
			{ "score":0.9726402188782489,"pvalue":0.10861400895459906,"fdr":0.3258420268637972,"coverage":"coverage:[(544 out of 556) , (167 out of 175)]", "EdgesIndex":["hsa:5879 hsa:5880 hsa:5881 hsa:998 (pp) hsa:5058 hsa:5062","hsa:5058 hsa:5062 (pp) hsa:10746 hsa:4215"]},
			{ "score":0.9699042407660738,"pvalue":0.31747768170525953,"fdr":0.9524330451157785,"coverage":"coverage:[(537 out of 556) , (172 out of 175)]", "EdgesIndex":["hsa:10125 hsa:10235 hsa:115727 hsa:25780 (pp) hsa:22800 hsa:22808 hsa:3265 hsa:3845 hsa:4893 hsa:6237"]},
			{ "score":0.9699042407660738,"pvalue":0.31747768170525953,"fdr":0.9524330451157785,"coverage":"coverage:[(537 out of 556) , (172 out of 175)]", "EdgesIndex":["hsa:10368 hsa:10369 hsa:27091 hsa:27092 hsa:55799 hsa:59283 hsa:59284 hsa:59285 hsa:773 hsa:774 hsa:775 hsa:776 hsa:777 hsa:778 hsa:779 hsa:781 hsa:782 hsa:783 hsa:784 hsa:785 hsa:786 hsa:8911 hsa:8912 hsa:8913 hsa:9254 hsa:93589 (pp) hsa:10125 hsa:10235 hsa:115727 hsa:25780","hsa:10125 hsa:10235 hsa:115727 hsa:25780 (pp) hsa:22800 hsa:22808 hsa:3265 hsa:3845 hsa:4893 hsa:6237"]},
			{ "score":0.9548563611491108,"pvalue":0.4042779824824368,"fdr":1.2128339474473104,"coverage":"coverage:[(533 out of 556) , (165 out of 175)]", "EdgesIndex":["hsa:5530 hsa:5532 hsa:5533 hsa:5534 hsa:5535 (pp) hsa:4772"]},
			{ "score":0.945280437756498,"pvalue":0.03521293877550155,"fdr":0.1408517551020062,"coverage":"coverage:[(520 out of 556) , (171 out of 175)]", "EdgesIndex":["hsa:6885 (pp) hsa:1147 hsa:3551 hsa:8517"]},
			{ "score":0.9439124487004104,"pvalue":0.05959572752306559,"fdr":0.1787871825691968,"coverage":"coverage:[(530 out of 556) , (160 out of 175)]", "EdgesIndex":["hsa:4908 hsa:4909 (pp) hsa:4914 hsa:4915"]},
			{ "score":0.9439124487004104,"pvalue":0.012833571371323205,"fdr":0.05133428548529282,"coverage":"coverage:[(532 out of 556) , (158 out of 175)]", "EdgesIndex":["hsa:1432 hsa:5600 hsa:5603 hsa:6300 (pp) hsa:4149"]},
			{ "score":0.9343365253077975,"pvalue":0.6010913164647901,"fdr":1.2021826329295802,"coverage":"coverage:[(521 out of 556) , (162 out of 175)]", "EdgesIndex":["hsa:4342 (pp) hsa:5605"]},
			{ "score":0.9343365253077975,"pvalue":0.383711078668644,"fdr":1.151133236005932,"coverage":"coverage:[(522 out of 556) , (161 out of 175)]", "EdgesIndex":["hsa:22800 hsa:22808 hsa:3265 hsa:3845 hsa:4893 hsa:6237 (pp) hsa:4342"]},
			{ "score":0.9316005471956225,"pvalue":0.49366531402823816,"fdr":1.4809959420847145,"coverage":"coverage:[(520 out of 556) , (161 out of 175)]", "EdgesIndex":["hsa:22800 hsa:22808 hsa:3265 hsa:3845 hsa:4893 hsa:6237 (pp) hsa:4342","hsa:4342 (pp) hsa:5605"]},
			{ "score":0.9302325581395349,"pvalue":0.23250099704155439,"fdr":0.6975029911246632,"coverage":"coverage:[(521 out of 556) , (159 out of 175)]", "EdgesIndex":["hsa:5578 hsa:5579 hsa:5582 (pp) hsa:22800 hsa:22808 hsa:3265 hsa:3845 hsa:4893 hsa:6237","hsa:22800 hsa:22808 hsa:3265 hsa:3845 hsa:4893 hsa:6237 (pp) hsa:4342"]},
			{ "score":0.9261285909712722,"pvalue":0.7408511950239532,"fdr":1.4817023900479065,"coverage":"coverage:[(516 out of 556) , (161 out of 175)]", "EdgesIndex":["hsa:9693 (pp) hsa:22800 hsa:22808 hsa:3265 hsa:3845 hsa:4893 hsa:6237","hsa:22800 hsa:22808 hsa:3265 hsa:3845 hsa:4893 hsa:6237 (pp) hsa:4342"]},
			{ "score":0.9233926128590971,"pvalue":0.8707581038272659,"fdr":1.7415162076545319,"coverage":"coverage:[(514 out of 556) , (161 out of 175)]", "EdgesIndex":["hsa:9693 (pp) hsa:22800 hsa:22808 hsa:3265 hsa:3845 hsa:4893 hsa:6237","hsa:22800 hsa:22808 hsa:3265 hsa:3845 hsa:4893 hsa:6237 (pp) hsa:4342","hsa:4342 (pp) hsa:5605"]},
			{ "score":0.920656634746922,"pvalue":0.9999999999994191,"fdr":0.9999999999994191,"coverage":"coverage:[(512 out of 556) , (161 out of 175)]", "EdgesIndex":["hsa:5923 hsa:5924 (pp) hsa:22800 hsa:22808 hsa:3265 hsa:3845 hsa:4893 hsa:6237","hsa:22800 hsa:22808 hsa:3265 hsa:3845 hsa:4893 hsa:6237 (pp) hsa:4342"]},
			{ "score":0.9179206566347469,"pvalue":0.999999999998764,"fdr":1.999999999997528,"coverage":"coverage:[(510 out of 556) , (161 out of 175)]", "EdgesIndex":["hsa:5923 hsa:5924 (pp) hsa:22800 hsa:22808 hsa:3265 hsa:3845 hsa:4893 hsa:6237","hsa:22800 hsa:22808 hsa:3265 hsa:3845 hsa:4893 hsa:6237 (pp) hsa:4342","hsa:4342 (pp) hsa:5605"]},
			{ "score":0.9138166894664843,"pvalue":0.758888701329108,"fdr":1.517777402658216,"coverage":"coverage:[(509 out of 556) , (159 out of 175)]", "EdgesIndex":["hsa:6654 hsa:6655 (pp) hsa:22800 hsa:22808 hsa:3265 hsa:3845 hsa:4893 hsa:6237","hsa:22800 hsa:22808 hsa:3265 hsa:3845 hsa:4893 hsa:6237 (pp) hsa:4342"]},
			{ "score":0.9138166894664843,"pvalue":0.06432008325378799,"fdr":0.19296024976136397,"coverage":"coverage:[(502 out of 556) , (166 out of 175)]", "EdgesIndex":["hsa:5154 hsa:5155 (pp) hsa:5156 hsa:5159"]},
			{ "score":0.9110807113543091,"pvalue":0.879620553030196,"fdr":1.759241106060392,"coverage":"coverage:[(507 out of 556) , (159 out of 175)]", "EdgesIndex":["hsa:6654 hsa:6655 (pp) hsa:22800 hsa:22808 hsa:3265 hsa:3845 hsa:4893 hsa:6237","hsa:22800 hsa:22808 hsa:3265 hsa:3845 hsa:4893 hsa:6237 (pp) hsa:4342","hsa:4342 (pp) hsa:5605"]},
			{ "score":0.9069767441860465,"pvalue":0.9999999999987327,"fdr":1.9999999999974654,"coverage":"coverage:[(504 out of 556) , (159 out of 175)]", "EdgesIndex":["hsa:10368 hsa:10369 hsa:27091 hsa:27092 hsa:55799 hsa:59283 hsa:59284 hsa:59285 hsa:773 hsa:774 hsa:775 hsa:776 hsa:777 hsa:778 hsa:779 hsa:781 hsa:782 hsa:783 hsa:784 hsa:785 hsa:786 hsa:8911 hsa:8912 hsa:8913 hsa:9254 hsa:93589 (pp) hsa:10125 hsa:10235 hsa:115727 hsa:25780","hsa:10125 hsa:10235 hsa:115727 hsa:25780 (pp) hsa:22800 hsa:22808 hsa:3265 hsa:3845 hsa:4893 hsa:6237","hsa:22800 hsa:22808 hsa:3265 hsa:3845 hsa:4893 hsa:6237 (pp) hsa:4342"]},
			{ "score":0.9069767441860465,"pvalue":0.9999999999987327,"fdr":1.9999999999974654,"coverage":"coverage:[(504 out of 556) , (159 out of 175)]", "EdgesIndex":["hsa:10125 hsa:10235 hsa:115727 hsa:25780 (pp) hsa:22800 hsa:22808 hsa:3265 hsa:3845 hsa:4893 hsa:6237","hsa:22800 hsa:22808 hsa:3265 hsa:3845 hsa:4893 hsa:6237 (pp) hsa:4342"]},
			{ "score":0.9042407660738714,"pvalue":0.8839185300846231,"fdr":1.7678370601692461,"coverage":"coverage:[(502 out of 556) , (159 out of 175)]", "EdgesIndex":["hsa:10125 hsa:10235 hsa:115727 hsa:25780 (pp) hsa:22800 hsa:22808 hsa:3265 hsa:3845 hsa:4893 hsa:6237","hsa:22800 hsa:22808 hsa:3265 hsa:3845 hsa:4893 hsa:6237 (pp) hsa:4342","hsa:4342 (pp) hsa:5605"]},
			{ "score":0.9042407660738714,"pvalue":0.8839185300846231,"fdr":1.7678370601692461,"coverage":"coverage:[(502 out of 556) , (159 out of 175)]", "EdgesIndex":["hsa:10368 hsa:10369 hsa:27091 hsa:27092 hsa:55799 hsa:59283 hsa:59284 hsa:59285 hsa:773 hsa:774 hsa:775 hsa:776 hsa:777 hsa:778 hsa:779 hsa:781 hsa:782 hsa:783 hsa:784 hsa:785 hsa:786 hsa:8911 hsa:8912 hsa:8913 hsa:9254 hsa:93589 (pp) hsa:10125 hsa:10235 hsa:115727 hsa:25780","hsa:10125 hsa:10235 hsa:115727 hsa:25780 (pp) hsa:22800 hsa:22808 hsa:3265 hsa:3845 hsa:4893 hsa:6237","hsa:22800 hsa:22808 hsa:3265 hsa:3845 hsa:4893 hsa:6237 (pp) hsa:4342","hsa:4342 (pp) hsa:5605"]}
		]
	}
}