{
	"MicroArray" : "GSE2034-3494-7390.txt",
	"class1" : "ERpos",
	"class1mean" : "0.33734466331871354",
	"class1std" : "0.29938261495163077",
	"class1thr" : "0.5",
	"class1min" : "0.502113114413952",
	"class1max" : "0.8299954135453294",
	"class2" : "ERneg",
	"class2mean" : "-0.38065198081901586",
	"class2std" : "0.2863396831547533",
	"class2thr" : "-0.5",
	"class2min" : "-0.5008658449628197",
	"class2max" : "-0.8858521948992238",
	"bothUpThr" : "0.9",
	"subPaths":{
		"Class1":[
			{ "score":0.7858862039087321,"pvalue":5.5567067608145694E-21,"fdr":6.167944504504172E-19,"coverage":"coverage:[(212 out of 556) , (8 out of 175)]", "EdgesIndex":["hsa:65985 (pp) hsa:3155 hsa:54511"]},
			{ "score":0.7849805428661205,"pvalue":1.0121569580470328E-20,"fdr":1.0728863755298547E-18,"coverage":"coverage:[(211 out of 556) , (8 out of 175)]", "EdgesIndex":["hsa:65985 (pp) hsa:3155 hsa:54511","hsa:3155 hsa:54511 (pp) hsa:10449 hsa:30 hsa:3032"]},
			{ "score":0.7450856782623646,"pvalue":3.5423806217837988E-15,"fdr":1.5940712798027094E-13,"coverage":"coverage:[(174 out of 556) , (8 out of 175)]", "EdgesIndex":["hsa:36 (pp) hsa:1892 hsa:1962 hsa:3030","hsa:1892 hsa:1962 hsa:3030 (pp) hsa:3712","hsa:3712 (pp) hsa:1629","hsa:1629 (pp) hsa:35"]},
			{ "score":0.7173001144019321,"pvalue":2.7565137627054845E-16,"fdr":1.4885174318609615E-14,"coverage":"coverage:[(193 out of 556) , (10 out of 175)]", "EdgesIndex":["hsa:549 (pp) hsa:56922 hsa:64087","hsa:56922 hsa:64087 (pp) hsa:1892 hsa:1962 hsa:3030","hsa:1892 hsa:1962 hsa:3030 (pp) hsa:3712","hsa:3712 (pp) hsa:1629","hsa:1629 (pp) hsa:36"]},
			{ "score":0.6729171262592838,"pvalue":3.3257928478153142E-15,"fdr":1.5298647099950447E-13,"coverage":"coverage:[(195 out of 556) , (12 out of 175)]", "EdgesIndex":["hsa:56922 hsa:64087 (pp) hsa:1892 hsa:1962 hsa:3030","hsa:1892 hsa:1962 hsa:3030 (pp) hsa:3712","hsa:3712 (pp) hsa:1629","hsa:1629 (pp) hsa:35"]},
			{ "score":0.651897514929686,"pvalue":5.671126863997726E-40,"fdr":1.5198619995513906E-36,"coverage":"coverage:[(392 out of 556) , (26 out of 175)]", "EdgesIndex":["hsa:3155 hsa:54511 (pp) hsa:10449 hsa:30 hsa:3032"]},
			{ "score":0.6381748554551598,"pvalue":2.0045273436760178E-13,"fdr":6.614940234130859E-12,"coverage":"coverage:[(187 out of 556) , (13 out of 175)]", "EdgesIndex":["hsa:26275 (pp) hsa:1892 hsa:1962 hsa:3030","hsa:1892 hsa:1962 hsa:3030 (pp) hsa:3712","hsa:3712 (pp) hsa:1629","hsa:1629 (pp) hsa:35"]},
			{ "score":0.6380993707962681,"pvalue":4.0020884350100073E-25,"fdr":7.844093332619614E-23,"coverage":"coverage:[(302 out of 556) , (21 out of 175)]", "EdgesIndex":["hsa:38 hsa:39 (pp) hsa:3155 hsa:54511"]},
			{ "score":0.6371151963450451,"pvalue":7.771533270425619E-25,"fdr":1.4921343879217188E-22,"coverage":"coverage:[(301 out of 556) , (21 out of 175)]", "EdgesIndex":["hsa:38 hsa:39 (pp) hsa:3155 hsa:54511","hsa:3155 hsa:54511 (pp) hsa:10449 hsa:30 hsa:3032"]},
			{ "score":0.6288020107212283,"pvalue":1.850715994935686E-17,"fdr":1.2029653967081958E-15,"coverage":"coverage:[(237 out of 556) , (17 out of 175)]", "EdgesIndex":["hsa:549 (pp) hsa:56922 hsa:64087","hsa:56922 hsa:64087 (pp) hsa:1892 hsa:1962 hsa:3030","hsa:1892 hsa:1962 hsa:3030 (pp) hsa:3712"]},
			{ "score":0.6264486870835899,"pvalue":1.5653574579729643E-18,"fdr":1.1740180934797233E-16,"coverage":"coverage:[(249 out of 556) , (18 out of 175)]", "EdgesIndex":["hsa:5019 hsa:64064 (pp) hsa:3155 hsa:54511"]},
			{ "score":0.6249355184318083,"pvalue":3.976432250892589E-17,"fdr":2.425623673044479E-15,"coverage":"coverage:[(234 out of 556) , (17 out of 175)]", "EdgesIndex":["hsa:549 (pp) hsa:56922 hsa:64087","hsa:56922 hsa:64087 (pp) hsa:1892 hsa:1962 hsa:3030","hsa:1892 hsa:1962 hsa:3030 (pp) hsa:3712","hsa:3712 (pp) hsa:1629"]},
			{ "score":0.623992636146751,"pvalue":3.2029224722693948E-18,"fdr":2.3061041800339644E-16,"coverage":"coverage:[(247 out of 556) , (18 out of 175)]", "EdgesIndex":["hsa:5019 hsa:64064 (pp) hsa:3155 hsa:54511","hsa:3155 hsa:54511 (pp) hsa:10449 hsa:30 hsa:3032"]},
			{ "score":0.6197423914282458,"pvalue":3.9851130165454387E-14,"fdr":1.4744918161218123E-12,"coverage":"coverage:[(203 out of 556) , (15 out of 175)]", "EdgesIndex":["hsa:1892 hsa:1962 hsa:3030 (pp) hsa:3712","hsa:3712 (pp) hsa:1629","hsa:1629 (pp) hsa:35"]},
			{ "score":0.6197423914282458,"pvalue":3.9851130165454387E-14,"fdr":1.4744918161218123E-12,"coverage":"coverage:[(203 out of 556) , (15 out of 175)]", "EdgesIndex":["hsa:3712 (pp) hsa:1629","hsa:1629 (pp) hsa:35"]},
			{ "score":0.6163853061951236,"pvalue":9.656975390275358E-42,"fdr":6.72898045194387E-38,"coverage":"coverage:[(415 out of 556) , (31 out of 175)]", "EdgesIndex":["hsa:56922 hsa:64087 (pp) hsa:1892 hsa:1962 hsa:3030","hsa:1892 hsa:1962 hsa:3030 (pp) hsa:3712","hsa:3712 (pp) hsa:1629","hsa:1629 (pp) hsa:36"]},
			{ "score":0.5983384504244175,"pvalue":1.6478462455337134E-11,"fdr":3.790046364727541E-10,"coverage":"coverage:[(177 out of 556) , (14 out of 175)]", "EdgesIndex":["hsa:27034 (pp) hsa:1629","hsa:1629 (pp) hsa:35"]},
			{ "score":0.5858730060207312,"pvalue":2.8419510934338597E-30,"fdr":1.2049872636159565E-27,"coverage":"coverage:[(365 out of 556) , (30 out of 175)]", "EdgesIndex":["hsa:27034 (pp) hsa:1629","hsa:1629 (pp) hsa:36","hsa:36 (pp) hsa:1892 hsa:1962 hsa:3030","hsa:1892 hsa:1962 hsa:3030 (pp) hsa:1962 hsa:3028 hsa:3033"]},
			{ "score":0.5830975013908037,"pvalue":1.6752156154060449E-31,"fdr":8.20855651548962E-29,"coverage":"coverage:[(374 out of 556) , (31 out of 175)]", "EdgesIndex":["hsa:27034 (pp) hsa:1629","hsa:1629 (pp) hsa:36","hsa:36 (pp) hsa:1892 hsa:1962 hsa:3030"]},
			{ "score":0.5830975013908037,"pvalue":1.6752156154060449E-31,"fdr":8.325821608568043E-29,"coverage":"coverage:[(374 out of 556) , (31 out of 175)]", "EdgesIndex":["hsa:27034 (pp) hsa:1629","hsa:1629 (pp) hsa:36"]},
			{ "score":0.5740832262528417,"pvalue":1.4877524093682966E-29,"fdr":5.564194011037429E-27,"coverage":"coverage:[(364 out of 556) , (31 out of 175)]", "EdgesIndex":["hsa:27034 (pp) hsa:1629","hsa:1629 (pp) hsa:36","hsa:36 (pp) hsa:1892 hsa:1962 hsa:3030","hsa:1892 hsa:1962 hsa:3030 (pp) hsa:3712"]},
			{ "score":0.5686950525771418,"pvalue":7.117535862139331E-13,"fdr":2.1352607586417994E-11,"coverage":"coverage:[(208 out of 556) , (18 out of 175)]", "EdgesIndex":["hsa:1629 (pp) hsa:35"]},
			{ "score":0.5682550342613094,"pvalue":4.5054264050044676E-40,"fdr":1.3079252853727969E-36,"coverage":"coverage:[(427 out of 556) , (37 out of 175)]", "EdgesIndex":["hsa:36 (pp) hsa:1892 hsa:1962 hsa:3030","hsa:1892 hsa:1962 hsa:3030 (pp) hsa:1962 hsa:3028 hsa:3033"]},
			{ "score":0.5670624878333659,"pvalue":3.8659624166516566E-42,"fdr":4.489928750699234E-38,"coverage":"coverage:[(437 out of 556) , (38 out of 175)]", "EdgesIndex":["hsa:36 (pp) hsa:1892 hsa:1962 hsa:3030"]},
			{ "score":0.5666635070091736,"pvalue":2.0396836268959622E-39,"fdr":4.44039125575251E-36,"coverage":"coverage:[(425 out of 556) , (37 out of 175)]", "EdgesIndex":["hsa:1629 (pp) hsa:36","hsa:36 (pp) hsa:1892 hsa:1962 hsa:3030","hsa:1892 hsa:1962 hsa:3030 (pp) hsa:1962 hsa:3028 hsa:3033"]},
			{ "score":0.5655044060337472,"pvalue":1.4965427050738132E-41,"fdr":8.690423488363634E-38,"coverage":"coverage:[(435 out of 556) , (38 out of 175)]", "EdgesIndex":["hsa:1629 (pp) hsa:36","hsa:36 (pp) hsa:1892 hsa:1962 hsa:3030"]},
			{ "score":0.5576960288963901,"pvalue":1.876514299770927E-36,"fdr":1.979722586258328E-33,"coverage":"coverage:[(414 out of 556) , (37 out of 175)]", "EdgesIndex":["hsa:3712 (pp) hsa:1629","hsa:1629 (pp) hsa:36","hsa:36 (pp) hsa:1892 hsa:1962 hsa:3030","hsa:1892 hsa:1962 hsa:3030 (pp) hsa:1962 hsa:3028 hsa:3033"]},
			{ "score":0.5575426949938744,"pvalue":1.0698610636442385E-38,"fdr":1.8636979728682633E-35,"coverage":"coverage:[(425 out of 556) , (38 out of 175)]", "EdgesIndex":["hsa:36 (pp) hsa:1892 hsa:1962 hsa:3030","hsa:1892 hsa:1962 hsa:3030 (pp) hsa:3712"]},
			{ "score":0.5566052203784928,"pvalue":9.685290702412608E-41,"fdr":3.3743552807205527E-37,"coverage":"coverage:[(435 out of 556) , (39 out of 175)]", "EdgesIndex":["hsa:1629 (pp) hsa:36"]},
			{ "score":0.5559152102403497,"pvalue":5.773902206466206E-38,"fdr":8.043045773607425E-35,"coverage":"coverage:[(423 out of 556) , (38 out of 175)]", "EdgesIndex":["hsa:36 (pp) hsa:1892 hsa:1962 hsa:3030","hsa:1892 hsa:1962 hsa:3030 (pp) hsa:3712","hsa:3712 (pp) hsa:1629"]},
			{ "score":0.5559152102403497,"pvalue":5.773902206466206E-38,"fdr":8.741687940589836E-35,"coverage":"coverage:[(423 out of 556) , (38 out of 175)]", "EdgesIndex":["hsa:1629 (pp) hsa:36","hsa:36 (pp) hsa:1892 hsa:1962 hsa:3030","hsa:1892 hsa:1962 hsa:3030 (pp) hsa:3712"]},
			{ "score":0.5559152102403497,"pvalue":5.773902206466206E-38,"fdr":8.377932101582465E-35,"coverage":"coverage:[(423 out of 556) , (38 out of 175)]", "EdgesIndex":["hsa:3712 (pp) hsa:1629","hsa:1629 (pp) hsa:36","hsa:36 (pp) hsa:1892 hsa:1962 hsa:3030"]},
			{ "score":0.5559152102403497,"pvalue":5.773902206466206E-38,"fdr":9.140087192836004E-35,"coverage":"coverage:[(423 out of 556) , (38 out of 175)]", "EdgesIndex":["hsa:1892 hsa:1962 hsa:3030 (pp) hsa:3712","hsa:3712 (pp) hsa:1629","hsa:1629 (pp) hsa:36"]},
			{ "score":0.5483495614564695,"pvalue":8.269555803927278E-34,"fdr":6.1277408507101124E-31,"coverage":"coverage:[(403 out of 556) , (37 out of 175)]", "EdgesIndex":["hsa:26275 (pp) hsa:1892 hsa:1962 hsa:3030","hsa:1892 hsa:1962 hsa:3030 (pp) hsa:3712","hsa:3712 (pp) hsa:1629","hsa:1629 (pp) hsa:36"]},
			{ "score":0.5468764692975582,"pvalue":2.4652518512524627E-37,"fdr":3.0667733029580637E-34,"coverage":"coverage:[(423 out of 556) , (39 out of 175)]", "EdgesIndex":["hsa:3712 (pp) hsa:1629","hsa:1629 (pp) hsa:36"]},
			{ "score":0.5247601191132679,"pvalue":1.9332121887126504E-20,"fdr":1.952544310599777E-18,"coverage":"coverage:[(316 out of 556) , (31 out of 175)]", "EdgesIndex":["hsa:316 (pp) hsa:18"]}
		],
		"Class2":[
		],
		"Common":[
			{ "score":0.957592339261286,"pvalue":7.651988317526586E-4,"fdr":0.0038259941587632934,"coverage":"coverage:[(541 out of 556) , (159 out of 175)]", "EdgesIndex":["hsa:1892 hsa:1962 hsa:3030 (pp) hsa:1962 hsa:3028 hsa:3033"]}
		]
	}
}