{
	"MicroArray" : "GSE2034-3494-7390.txt",
	"class1" : "ERpos",
	"class1mean" : "0.33734466331871354",
	"class1std" : "0.29938261495163077",
	"class1thr" : "0.5",
	"class1min" : "0.502113114413952",
	"class1max" : "0.8299954135453294",
	"class2" : "ERneg",
	"class2mean" : "-0.38065198081901586",
	"class2std" : "0.2863396831547533",
	"class2thr" : "-0.5",
	"class2min" : "-0.5008658449628197",
	"class2max" : "-0.8858521948992238",
	"bothUpThr" : "0.9",
	"subPaths":{
		"Class1":[
		],
		"Class2":[
			{ "score":-0.5369730476848652,"pvalue":7.904417438674746E-15,"fdr":3.398899498630141E-13,"coverage":"coverage:[(67 out of 556) , (70 out of 175)]", "EdgesIndex":["hsa:5594 hsa:5595 (pp) hsa:3576"]},
			{ "score":-0.7545582047685835,"pvalue":4.082785957710827E-16,"fdr":2.12304869800963E-14,"coverage":"coverage:[(20 out of 556) , (45 out of 175)]", "EdgesIndex":["hsa:8767 (pp) hsa:5594 hsa:5595","hsa:5594 hsa:5595 (pp) hsa:3576"]}
		],
		"Common":[
		]
	}
}