{
	"MicroArray" : "GSE2034-3494-7390.txt",
	"class1" : "ERpos",
	"class1mean" : "0.33734466331871354",
	"class1std" : "0.29938261495163077",
	"class1thr" : "0.5",
	"class1min" : "0.502113114413952",
	"class1max" : "0.8299954135453294",
	"class2" : "ERneg",
	"class2mean" : "-0.38065198081901586",
	"class2std" : "0.2863396831547533",
	"class2thr" : "-0.5",
	"class2min" : "-0.5008658449628197",
	"class2max" : "-0.8858521948992238",
	"bothUpThr" : "0.9",
	"subPaths":{
		"Class1":[
		],
		"Class2":[
		],
		"Common":[
			{ "score":0.9958960328317373,"pvalue":0.14410309882405933,"fdr":0.432309296472178,"coverage":"coverage:[(555 out of 556) , (173 out of 175)]", "EdgesIndex":["hsa:5578 hsa:5579 hsa:5582 (pp) hsa:10488 hsa:1385 hsa:1386 hsa:1388 hsa:148327 hsa:468 hsa:64764 hsa:84699 hsa:90993 hsa:9586"]},
			{ "score":0.9863201094391245,"pvalue":2.7100858938012233E-4,"fdr":0.0016260515362807341,"coverage":"coverage:[(554 out of 556) , (167 out of 175)]", "EdgesIndex":["hsa:5578 hsa:5579 hsa:5582 (pp) hsa:7849"]}
		]
	}
}